{
    "images":
    {
        "title":
        {
            "image" : "mainmenu:left2die.png",
            "posX" : 170,
            "posY" : -40,
            "width" : 247,
            "height" : 80,
            "imageWidth" : 617,
            "imageHeight" : 200,
            "alignment" : "left_center"
        },
        
        "edition":
        {
            "image" : "custommainmenu:textures/gui/edition.png",
            "posX" : -4900,
            "posY" : 67,
            "width" : 128,
            "height" : 16,
            "alignment" : "top_center"
        }
    },
    
    "buttons":
    {
        "singleplayer":
        {
            "text" : "menu.singleplayer",
            "posX" : 45,
            "posY" : -45,
            "width" : 100,
            "height" : 20,
            "alignment" : "left_center",
            "action" : 
            {
                "type" : "openGui",
                "gui" : "singleplayer"
            }
        },
        
        "multiplayer":
        {
            "text" : "menu.multiplayer",
            "posX" : 45,
            "posY" : -20,
            "width" : 100,
            "height" : 20,
            "alignment" : "left_center",
            "action" : 
            {
                "type" : "openGui",
                "gui" : "multiplayer"
            }
        },
        
        "mods":
        {
            "text" : "fml.menu.mods",
            "posX" : 45,
            "posY" : 5,
            "width" : 100,
            "height" : 20,
            "alignment" : "left_center",
            "action" : 
            {
                "type" : "openGui",
                "gui" : "mods"
            }
        },
            
        "options":
        {
            "text" : "menu.options",
            "posX" : 45,
            "posY" : 30,
            "width" : 50,
            "height" : 20,
            "alignment" : "left_center",
            "action" : 
            {
                "type" : "openGui",
                "gui" : "options"
            }
        },
        
        "quit":
        {
            "text" : "menu.quit",
            "posX" : 95,
            "posY" : 30,
            "width" : 50,
            "height" : 20,
            "alignment" : "left_center",
            "action" : 
            {
                "type" : "quit"
            }
        },
        
        "language":
        {
            "text" : "",
            "posX" : -20,
            "posY" : 0,
            "width" : 20,
            "height" : 20,
            "alignment" : "top_right",
            "action" : 
            {
                "type" : "openGui",
                "gui" : "languages"
            }
        },
        
        "refresh":
        {
            "text" : "",
            "posX" : -40,
            "posY" : 0,
            "width" : 20,
            "height" : 20,
            "texture" : "custommainmenu:textures/gui/buttons.png",
            "alignment" : "top_right",
            "action" : 
            {
                "type" : "refresh"
            }
        }
    },
    
    "labels":
    {
        "mojang":
        {
            "text" : "Copyright Mojang AB. Do not distribute!",
            "hoverText" : "§nCopyright Mojang AB. Do not distribute!",
            "posX" : -197,
            "posY" : -10,
            "color" : -1,
            "alignment" : "bottom_right",
            "action" : 
            {
                "type" : "openGui",
                "gui" : "credits"
            }
        },
        
        "fml":
        {
            "text" : "",
            "posX" : 2,
            "posY" : -4000,
            "color" : -1,
            "alignment" : "bottom_left"
        },
        "l2d":
        {
            "text" : "minecraftleft2die.com",
            "posX" : 5,
            "posY" : -10,
            "color" : -1,
            "alignment" : "bottom_left",
            "action" : 
            {
                "type" : "openLink",
                "link" : "https://minecraftleft2die.com"
            }
        }
    },
    
    "other":
    {
        "splash-text":
        {
            "posX" : 350,
            "posY" : 40,
            "color" : -256,
            "alignment" : "left_center",
            "texts" : "file:mainmenu:splashes.txt"
        },
        
        "panorama":
        {
            "images" : "mainmenu:background.png",
            "animate" : true,
            "animationSpeed" : 1,
            "blur" : true,
            "gradient" : true
        }
    }
}
