{
  "MAINHAND": {
    "defiledlands:ravaging_axe": 600,
    "defiledlands:scarlite_razor": 919,
    "defiledlands:scarlite_reaver": 856,
    "defiledlands:umbrium_axe": 600,
    "defiledlands:umbrium_sword": 856,
    "minecraft:bow": 850,
    "minecraft:diamond_axe": 600,
    "minecraft:diamond_sword": 831,
    "minecraft:enchanted_book": 800,
    "minecraft:golden_axe": 676,
    "minecraft:golden_sword": 900,
    "minecraft:iron_axe": 600,
    "minecraft:iron_sword": 856,
    "minecraft:snowball": 900,
    "minecraft:splash_potion": 750,
    "minecraft:stone_axe": 600,
    "minecraft:stone_sword": 879,
    "minecraft:tnt": 600,
    "minecraft:wooden_axe": 676,
    "minecraft:wooden_sword": 900,
    "mocreatures:bo": 856,
    "mocreatures:katana": 856,
    "mocreatures:nunchaku": 856,
    "mocreatures:sai": 856,
    "mocreatures:scorpswordcave": 856,
    "mocreatures:scorpsworddirt": 856,
    "mocreatures:scorpswordfrost": 856,
    "mocreatures:scorpswordnether": 856,
    "mocreatures:sharksword": 856,
    "mocreatures:silversword": 804,
    "mujmajnkraftsbettersurvival:itemaluminiumbattleaxe": 860,
    "mujmajnkraftsbettersurvival:itemaluminiumdagger": 860,
    "mujmajnkraftsbettersurvival:itemaluminiumhammer": 860,
    "mujmajnkraftsbettersurvival:itemaluminiumnunchaku": 860,
    "mujmajnkraftsbettersurvival:itembronzebattleaxe": 860,
    "mujmajnkraftsbettersurvival:itembronzedagger": 860,
    "mujmajnkraftsbettersurvival:itembronzehammer": 860,
    "mujmajnkraftsbettersurvival:itembronzenunchaku": 860,
    "mujmajnkraftsbettersurvival:itemcopperbattleaxe": 879,
    "mujmajnkraftsbettersurvival:itemcopperdagger": 879,
    "mujmajnkraftsbettersurvival:itemcopperhammer": 879,
    "mujmajnkraftsbettersurvival:itemcoppernunchaku": 879,
    "mujmajnkraftsbettersurvival:itemcrossbow": 850,
    "mujmajnkraftsbettersurvival:itemdesertchitinbattleaxe": 919,
    "mujmajnkraftsbettersurvival:itemdesertchitindagger": 919,
    "mujmajnkraftsbettersurvival:itemdesertchitinhammer": 919,
    "mujmajnkraftsbettersurvival:itemdesertchitinnunchaku": 919,
    "mujmajnkraftsbettersurvival:itemdiamondbattleaxe": 831,
    "mujmajnkraftsbettersurvival:itemdiamonddagger": 831,
    "mujmajnkraftsbettersurvival:itemdiamondhammer": 831,
    "mujmajnkraftsbettersurvival:itemdiamondnunchaku": 831,
    "mujmajnkraftsbettersurvival:itemdragonbonebattleaxe": 804,
    "mujmajnkraftsbettersurvival:itemdragonbonedagger": 804,
    "mujmajnkraftsbettersurvival:itemdragonbonehammer": 804,
    "mujmajnkraftsbettersurvival:itemdragonbonenunchaku": 804,
    "mujmajnkraftsbettersurvival:itemelectrumbattleaxe": 887,
    "mujmajnkraftsbettersurvival:itemelectrumdagger": 887,
    "mujmajnkraftsbettersurvival:itemelectrumhammer": 887,
    "mujmajnkraftsbettersurvival:itemelectrumnunchaku": 887,
    "mujmajnkraftsbettersurvival:itemenderiumbattleaxe": 804,
    "mujmajnkraftsbettersurvival:itemenderiumdagger": 804,
    "mujmajnkraftsbettersurvival:itemenderiumhammer": 804,
    "mujmajnkraftsbettersurvival:itemenderiumnunchaku": 804,
    "mujmajnkraftsbettersurvival:itemgoldbattleaxe": 900,
    "mujmajnkraftsbettersurvival:itemgolddagger": 900,
    "mujmajnkraftsbettersurvival:itemgoldhammer": 900,
    "mujmajnkraftsbettersurvival:itemgoldnunchaku": 900,
    "mujmajnkraftsbettersurvival:iteminvarbattleaxe": 853,
    "mujmajnkraftsbettersurvival:iteminvardagger": 853,
    "mujmajnkraftsbettersurvival:iteminvarhammer": 853,
    "mujmajnkraftsbettersurvival:iteminvarnunchaku": 853,
    "mujmajnkraftsbettersurvival:itemironbattleaxe": 856,
    "mujmajnkraftsbettersurvival:itemirondagger": 856,
    "mujmajnkraftsbettersurvival:itemironhammer": 856,
    "mujmajnkraftsbettersurvival:itemironnunchaku": 856,
    "mujmajnkraftsbettersurvival:itemjunglechitinbattleaxe": 919,
    "mujmajnkraftsbettersurvival:itemjunglechitindagger": 919,
    "mujmajnkraftsbettersurvival:itemjunglechitinhammer": 919,
    "mujmajnkraftsbettersurvival:itemjunglechitinnunchaku": 919,
    "mujmajnkraftsbettersurvival:itemlumiumbattleaxe": 843,
    "mujmajnkraftsbettersurvival:itemlumiumdagger": 843,
    "mujmajnkraftsbettersurvival:itemlumiumhammer": 843,
    "mujmajnkraftsbettersurvival:itemlumiumnunchaku": 843,
    "mujmajnkraftsbettersurvival:itemsignalumbattleaxe": 856,
    "mujmajnkraftsbettersurvival:itemsignalumdagger": 856,
    "mujmajnkraftsbettersurvival:itemsignalumhammer": 856,
    "mujmajnkraftsbettersurvival:itemsignalumnunchaku": 856,
    "mujmajnkraftsbettersurvival:itemsilverbattleaxe": 889,
    "mujmajnkraftsbettersurvival:itemsilverdagger": 889,
    "mujmajnkraftsbettersurvival:itemsilverhammer": 889,
    "mujmajnkraftsbettersurvival:itemsilvernunchaku": 889,
    "mujmajnkraftsbettersurvival:itemsteelbattleaxe": 843,
    "mujmajnkraftsbettersurvival:itemsteeldagger": 843,
    "mujmajnkraftsbettersurvival:itemsteelhammer": 843,
    "mujmajnkraftsbettersurvival:itemsteelnunchaku": 843,
    "mujmajnkraftsbettersurvival:itemstonebattleaxe": 879,
    "mujmajnkraftsbettersurvival:itemstonedagger": 879,
    "mujmajnkraftsbettersurvival:itemstonehammer": 879,
    "mujmajnkraftsbettersurvival:itemstonenunchaku": 879,
    "mujmajnkraftsbettersurvival:itemwoodbattleaxe": 900,
    "mujmajnkraftsbettersurvival:itemwooddagger": 900,
    "mujmajnkraftsbettersurvival:itemwoodhammer": 900,
    "mujmajnkraftsbettersurvival:itemwoodnunchaku": 900,
    "omlib:fake_sword": 831
  },
  "OFFHAND": {
    "minecraft:ender_pearl": 600,
    "minecraft:flint_and_steel": 700,
    "minecraft:lava_bucket": 400,
    "minecraft:shield": 950,
    "mujmajnkraftsbettersurvival:itembigshield": 1000,
    "mujmajnkraftsbettersurvival:itemsmallshield": 1000
  },
  "FEET": {
    "defiledlands:scale_boots": 841,
    "defiledlands:scale_golden_boots": 833,
    "defiledlands:umbrium_boots": 744,
    "minecraft:chainmail_boots": 844,
    "minecraft:diamond_boots": 683,
    "minecraft:golden_boots": 900,
    "minecraft:iron_boots": 839,
    "minecraft:leather_boots": 932,
    "mocreatures:furboots": 775,
    "mocreatures:hideboots": 775,
    "mocreatures:reptileboots": 775,
    "mocreatures:scorpbootscave": 775,
    "mocreatures:scorpbootsdirt": 775,
    "mocreatures:scorpbootsfrost": 775,
    "mocreatures:scorpbootsnether": 775,
    "toughasnails:jelled_slime_boots": 851,
    "toughasnails:wool_boots": 960
  },
  "LEGS": {
    "defiledlands:scale_golden_leggings": 833,
    "defiledlands:scale_leggings": 841,
    "defiledlands:umbrium_leggings": 744,
    "minecraft:chainmail_leggings": 844,
    "minecraft:diamond_leggings": 683,
    "minecraft:golden_leggings": 900,
    "minecraft:iron_leggings": 839,
    "minecraft:leather_leggings": 932,
    "mocreatures:furlegs": 775,
    "mocreatures:hidelegs": 775,
    "mocreatures:reptilelegs": 775,
    "mocreatures:scorplegscave": 775,
    "mocreatures:scorplegsdirt": 775,
    "mocreatures:scorplegsfrost": 775,
    "mocreatures:scorplegsnether": 775,
    "toughasnails:jelled_slime_leggings": 851,
    "toughasnails:wool_leggings": 960
  },
  "CHEST": {
    "defiledlands:scale_chestplate": 841,
    "defiledlands:scale_golden_chestplate": 833,
    "defiledlands:umbrium_chestplate": 744,
    "minecraft:chainmail_chestplate": 844,
    "minecraft:diamond_chestplate": 683,
    "minecraft:golden_chestplate": 900,
    "minecraft:iron_chestplate": 839,
    "minecraft:leather_chestplate": 932,
    "mocreatures:furchest": 775,
    "mocreatures:hidechest": 775,
    "mocreatures:reptileplate": 775,
    "mocreatures:scorpplatecave": 775,
    "mocreatures:scorpplatedirt": 775,
    "mocreatures:scorpplatefrost": 775,
    "mocreatures:scorpplatenether": 775,
    "toughasnails:jelled_slime_chestplate": 851,
    "toughasnails:wool_chestplate": 960
  },
  "HEAD": {
    "defiledlands:scale_golden_helmet": 833,
    "defiledlands:scale_helmet": 841,
    "defiledlands:umbrium_helmet": 744,
    "minecraft:chainmail_helmet": 844,
    "minecraft:diamond_helmet": 683,
    "minecraft:golden_helmet": 900,
    "minecraft:iron_helmet": 839,
    "minecraft:leather_helmet": 932,
    "mocreatures:furhelmet": 775,
    "mocreatures:hidehelmet": 775,
    "mocreatures:reptilehelmet": 775,
    "mocreatures:scorphelmetcave": 775,
    "mocreatures:scorphelmetdirt": 775,
    "mocreatures:scorphelmetfrost": 775,
    "mocreatures:scorphelmetnether": 775,
    "toughasnails:jelled_slime_helmet": 851,
    "toughasnails:wool_helmet": 960
  }
}